<?xml version="1.0" standalone="no"?>
<!DOCTYPE svg PUBLIC "-//W3C//DTD SVG 1.1//EN" "http://www.w3.org/Graphics/SVG/1.1/DTD/svg11.dtd">
<svg xmlns="http://www.w3.org/2000/svg">
<metadata>Copyright (C) 2019 by original authors @ fontello.com</metadata>
<defs>
<font id="lkt-icons" horiz-adv-x="1000" >
<font-face font-family="lkt-icons" font-weight="400" font-stretch="normal" units-per-em="1000" ascent="850" descent="-150" />
<missing-glyph horiz-adv-x="1000" />
<glyph glyph-name="ok" unicode="&#xe800;" d="M1179 778q-250-222-600-750l-115-179q-144 180-464 500l107 107 286-250q150 150 279 272t206 187 131 111 77 59l21 14q4 0 11-2t26-19 35-50z" horiz-adv-x="1179" />

<glyph glyph-name="cancel" unicode="&#xe801;" d="M654 349l346-346-154-154-346 346-346-346-154 154 346 346-346 346 154 154 346-346 346 346 154-154z" horiz-adv-x="1000" />

<glyph glyph-name="left-open" unicode="&#xe802;" d="M308 349l346-346-154-154-500 500 500 500 154-154z" horiz-adv-x="654" />

<glyph glyph-name="right-open" unicode="&#xe803;" d="M154 849l500-500-500-500-154 154 346 346-346 346z" horiz-adv-x="654" />

<glyph glyph-name="up-dir" unicode="&#xe804;" d="M571 171q0-14-10-25t-25-10h-500q-15 0-25 10t-11 25 11 26l250 250q10 10 25 10t25-10l250-250q10-11 10-26z" horiz-adv-x="571.4" />

<glyph glyph-name="down-dir" unicode="&#xe805;" d="M571 457q0-14-10-25l-250-250q-11-11-25-11t-25 11l-250 250q-11 11-11 25t11 25 25 11h500q14 0 25-11t10-25z" horiz-adv-x="571.4" />

<glyph glyph-name="picture" unicode="&#xe806;" d="M1360 849v-1000h-1360v1000h1360z m-1240-880h1120v760h-1120v-760z m1000 560q0-33-23-56t-57-24-56 24-24 56 24 57 56 23 57-23 23-57z m43-473q2-1 1-4t-4-3h-956q-4 0-4 4v2q18 36 135 280t144 299q1 2 4 3t3-2l311-386 152 122h7l1-2q39-50 102-155t104-158z" horiz-adv-x="1360" />

<glyph glyph-name="video" unicode="&#xe807;" d="M1360 849v-1000h-1360v1000h1360z m-200-160h120v80h-120v-80z m-200 0h120v80h-120v-80z m-240 0h120v80h-120v-80z m240-600h320v520h-320v-520z m-440 600h120v80h-120v-80z m640-760h120v80h-120v-80z m-880 760h120v80h-120v-80z m240-600h320v520h-320v-520z m440-160h120v80h-120v-80z m-880 760h120v80h-120v-80z m640-760h120v80h-120v-80z m-640 160h320v520h-320v-520z m440-160h120v80h-120v-80z m-240 0h120v80h-120v-80z m-200 0h120v80h-120v-80z" horiz-adv-x="1360" />

<glyph glyph-name="floppy" unicode="&#xe808;" d="M658 750l142-156 0-544q0-40-29-70t-71-30l-600 0q-40 0-70 30t-30 70l0 600q0 42 30 71t70 29l558 0z m-58-300l0 250-400 0 0-250q0-20 15-35t35-15l300 0q20 0 35 15t15 35z m-50 200l0-200-100 0 0 200 100 0z" horiz-adv-x="800" />
</font>
</defs>
</svg>